{
  "CORSRules": [
    {
      "AllowedOrigins": ["https://stg-naksha.delhivery.io"],
      "AllowedHeaders": ["*"],
      "AllowedMethods": ["GET","PUT", "POST", "DELETE"],
      "MaxAgeSeconds": 3000,
      "ExposeHeaders": ["x-amz-server-side-encryption"]
    },
    {
      "AllowedOrigins": ["*"],
      "AllowedMethods": ["GET","PUT", "POST"],
      "MaxAgeSeconds": 3000,
      "ExposeHeaders": ["x-amz-server-side-encryption"]
    }
  ]
}